<?xml version="1.0" encoding="UTF-8" standalone="no"?>
<!-- Created with Inkscape (http://www.inkscape.org/) -->

<svg
   xmlns:dc="http://purl.org/dc/elements/1.1/"
   xmlns:cc="http://creativecommons.org/ns#"
   xmlns:rdf="http://www.w3.org/1999/02/22-rdf-syntax-ns#"
   xmlns:svg="http://www.w3.org/2000/svg"
   xmlns="http://www.w3.org/2000/svg"
   xmlns:sodipodi="http://sodipodi.sourceforge.net/DTD/sodipodi-0.dtd"
   xmlns:inkscape="http://www.inkscape.org/namespaces/inkscape"
   width="744.09448819"
   height="1052.3622047"
   id="svg4485"
   version="1.1"
   inkscape:version="0.48.3.1 r9886"
   sodipodi:docname="coverA5.svg"
   inkscape:export-filename="/home/alioli/Documents/coverA5.eps.png"
   inkscape:export-xdpi="90"
   inkscape:export-ydpi="90">
  <defs
     id="defs4487">
    <clipPath
       clipPathUnits="userSpaceOnUse"
       id="clipPath3018">
      <path
         inkscape:connector-curvature="0"
         d="m 0,841.89 595,0 0,-841 -595,0 0,841 z"
         id="path3020" />
    </clipPath>
    <clipPath
       clipPathUnits="userSpaceOnUse"
       id="clipPath3226">
      <path
         inkscape:connector-curvature="0"
         d="m 306.52,453.292 252.633,0 0,-223.367 -252.633,0 0,223.367 z"
         id="path3228" />
    </clipPath>
    <clipPath
       clipPathUnits="userSpaceOnUse"
       id="clipPath3238">
      <path
         inkscape:connector-curvature="0"
         d="m 0,841.89 595,0 0,-841 -595,0 0,841 z"
         id="path3240" />
    </clipPath>
    <clipPath
       clipPathUnits="userSpaceOnUse"
       id="clipPath3414">
      <path
         inkscape:connector-curvature="0"
         d="m 36.125,586.464 523.027,0 0,-356.539 -523.027,0 0,356.539 z"
         id="path3416" />
    </clipPath>
    <clipPath
       clipPathUnits="userSpaceOnUse"
       id="clipPath3440">
      <path
         inkscape:connector-curvature="0"
         d="m 0,841.89 595,0 0,-841 -595,0 0,841 z"
         id="path3442" />
    </clipPath>
    <clipPath
       clipPathUnits="userSpaceOnUse"
       id="clipPath3450">
      <path
         inkscape:connector-curvature="0"
         d="m 36.125,586.464 523.027,0 0,-356.539 -523.027,0 0,356.539 z"
         id="path3452" />
    </clipPath>
    <clipPath
       clipPathUnits="userSpaceOnUse"
       id="clipPath3470">
      <path
         inkscape:connector-curvature="0"
         d="m 0,841.89 595,0 0,-841 -595,0 0,841 z"
         id="path3472" />
    </clipPath>
    <clipPath
       clipPathUnits="userSpaceOnUse"
       id="clipPath3480">
      <path
         inkscape:connector-curvature="0"
         d="m 36.125,586.464 523.027,0 0,-356.539 -523.027,0 0,356.539 z"
         id="path3482" />
    </clipPath>
    <clipPath
       clipPathUnits="userSpaceOnUse"
       id="clipPath3506">
      <path
         inkscape:connector-curvature="0"
         d="m 0,841.89 595,0 0,-841 -595,0 0,841 z"
         id="path3508" />
    </clipPath>
    <clipPath
       clipPathUnits="userSpaceOnUse"
       id="clipPath3516">
      <path
         inkscape:connector-curvature="0"
         d="m 36.125,586.464 523.027,0 0,-356.539 -523.027,0 0,356.539 z"
         id="path3518" />
    </clipPath>
    <clipPath
       clipPathUnits="userSpaceOnUse"
       id="clipPath3572">
      <path
         inkscape:connector-curvature="0"
         d="m 0,841.89 595,0 0,-841 -595,0 0,841 z"
         id="path3574" />
    </clipPath>
    <clipPath
       clipPathUnits="userSpaceOnUse"
       id="clipPath3582">
      <path
         inkscape:connector-curvature="0"
         d="m 36.125,586.464 523.027,0 0,-356.539 -523.027,0 0,356.539 z"
         id="path3584" />
    </clipPath>
    <clipPath
       clipPathUnits="userSpaceOnUse"
       id="clipPath3592">
      <path
         inkscape:connector-curvature="0"
         d="m 0,841.89 595,0 0,-841 -595,0 0,841 z"
         id="path3594" />
    </clipPath>
    <clipPath
       clipPathUnits="userSpaceOnUse"
       id="clipPath3602">
      <path
         inkscape:connector-curvature="0"
         d="m 36.125,586.464 523.027,0 0,-356.539 -523.027,0 0,356.539 z"
         id="path3604" />
    </clipPath>
  </defs>
  <sodipodi:namedview
     id="base"
     pagecolor="#ffffff"
     bordercolor="#666666"
     borderopacity="1.0"
     inkscape:pageopacity="0.0"
     inkscape:pageshadow="2"
     inkscape:zoom="0.79500352"
     inkscape:cx="408.14737"
     inkscape:cy="629.53595"
     inkscape:document-units="px"
     inkscape:current-layer="g3898"
     showgrid="false"
     inkscape:window-width="1600"
     inkscape:window-height="843"
     inkscape:window-x="1440"
     inkscape:window-y="27"
     inkscape:window-maximized="1" />
  <metadata
     id="metadata4490">
    <rdf:RDF>
      <cc:Work
         rdf:about="">
        <dc:format>image/svg+xml</dc:format>
        <dc:type
           rdf:resource="http://purl.org/dc/dcmitype/StillImage" />
        <dc:title />
      </cc:Work>
    </rdf:RDF>
  </metadata>
  <g
     inkscape:label="Layer 1"
     inkscape:groupmode="layer"
     id="layer1">
    <g
       transform="matrix(1.25,0,0,-1.25,5.0941071,1008.3196)"
       id="g3898">
      <g
         id="g3014">
        <g
           clip-path="url(#clipPath3018)"
           id="g3016">
          <path
             inkscape:connector-curvature="0"
             id="path3022"
             style="fill:#ffffff;fill-opacity:1;fill-rule:nonzero;stroke:none"
             d="m 36.125,586.464 523.027,0 0,-356.539 -523.027,0 0,356.539 z" />
          <path
             inkscape:connector-curvature="0"
             id="path3024"
             style="fill:#ffffff;fill-opacity:1;fill-rule:nonzero;stroke:none"
             d="m 36.125,586.464 523.027,0 0,-356.539 -523.027,0 0,356.539 z" />
          <path
             inkscape:connector-curvature="0"
             id="path3026"
             style="fill:#231f20;fill-opacity:1;fill-rule:nonzero;stroke:none"
             d="m 289.539,586.464 16.98,0 0,-356.539 -16.98,0 0,356.539 z" />
          <text
             id="text3028"
             transform="matrix(1,0,0,-1,347.75639,500.48408)">
            <tspan
               id="tspan3034"
               sodipodi:role="line"
               y="0"
               x="0"
               style="font-size:13.17689991px;font-variant:normal;writing-mode:lr-tb;fill:#231f20;fill-opacity:1;fill-rule:nonzero;stroke:none;font-family:CairoFont-0;-inkscape-font-specification:CairoFont-0-0" />
          </text>
          <path
             inkscape:connector-curvature="0"
             id="path3036"
             style="fill:none;stroke:#d22027;stroke-width:0.29899999;stroke-linecap:butt;stroke-linejoin:miter;stroke-miterlimit:4;stroke-opacity:1;stroke-dasharray:none"
             d="m 480.055,461.78 0,-8.488" />
          <path
             inkscape:connector-curvature="0"
             id="path3038"
             style="fill:none;stroke:#d22027;stroke-width:0.29899999;stroke-linecap:butt;stroke-linejoin:miter;stroke-miterlimit:4;stroke-opacity:1;stroke-dasharray:none"
             d="m 486.227,461.78 0,-8.488" />
          <path
             inkscape:connector-curvature="0"
             id="path3040"
             style="fill:none;stroke:#d22027;stroke-width:0.29899999;stroke-linecap:butt;stroke-linejoin:miter;stroke-miterlimit:4;stroke-opacity:1;stroke-dasharray:none"
             d="m 492.395,461.78 0,-8.488" />
          <path
             inkscape:connector-curvature="0"
             id="path3042"
             style="fill:none;stroke:#d22027;stroke-width:0.29899999;stroke-linecap:butt;stroke-linejoin:miter;stroke-miterlimit:4;stroke-opacity:1;stroke-dasharray:none"
             d="m 498.562,461.78 0,-8.488" />
          <path
             inkscape:connector-curvature="0"
             id="path3044"
             style="fill:none;stroke:#d22027;stroke-width:0.29899999;stroke-linecap:butt;stroke-linejoin:miter;stroke-miterlimit:4;stroke-opacity:1;stroke-dasharray:none"
             d="m 504.73,461.78 0,-8.488" />
          <path
             inkscape:connector-curvature="0"
             id="path3046"
             style="fill:none;stroke:#d22027;stroke-width:0.29899999;stroke-linecap:butt;stroke-linejoin:miter;stroke-miterlimit:4;stroke-opacity:1;stroke-dasharray:none"
             d="m 510.898,461.78 0,-8.488" />
          <path
             inkscape:connector-curvature="0"
             id="path3048"
             style="fill:none;stroke:#d22027;stroke-width:0.29899999;stroke-linecap:butt;stroke-linejoin:miter;stroke-miterlimit:4;stroke-opacity:1;stroke-dasharray:none"
             d="m 517.07,461.78 0,-8.488" />
          <path
             inkscape:connector-curvature="0"
             id="path3050"
             style="fill:none;stroke:#d22027;stroke-width:0.29899999;stroke-linecap:butt;stroke-linejoin:miter;stroke-miterlimit:4;stroke-opacity:1;stroke-dasharray:none"
             d="m 523.238,461.78 0,-8.488" />
          <path
             inkscape:connector-curvature="0"
             id="path3052"
             style="fill:none;stroke:#d22027;stroke-width:0.29899999;stroke-linecap:butt;stroke-linejoin:miter;stroke-miterlimit:4;stroke-opacity:1;stroke-dasharray:none"
             d="m 529.406,461.78 0,-8.488" />
          <path
             inkscape:connector-curvature="0"
             id="path3054"
             style="fill:none;stroke:#d22027;stroke-width:0.29899999;stroke-linecap:butt;stroke-linejoin:miter;stroke-miterlimit:4;stroke-opacity:1;stroke-dasharray:none"
             d="m 535.574,461.78 0,-8.488" />
          <path
             inkscape:connector-curvature="0"
             id="path3056"
             style="fill:none;stroke:#d22027;stroke-width:0.29899999;stroke-linecap:butt;stroke-linejoin:miter;stroke-miterlimit:4;stroke-opacity:1;stroke-dasharray:none"
             d="m 541.742,461.78 0,-8.488" />
          <path
             inkscape:connector-curvature="0"
             id="path3058"
             style="fill:none;stroke:#d22027;stroke-width:0.29899999;stroke-linecap:butt;stroke-linejoin:miter;stroke-miterlimit:4;stroke-opacity:1;stroke-dasharray:none"
             d="m 547.91,461.78 0,-8.488" />
          <path
             inkscape:connector-curvature="0"
             id="path3060"
             style="fill:none;stroke:#d22027;stroke-width:0.29899999;stroke-linecap:butt;stroke-linejoin:miter;stroke-miterlimit:4;stroke-opacity:1;stroke-dasharray:none"
             d="m 554.082,461.78 0,-8.488" />
          <path
             inkscape:connector-curvature="0"
             id="path3062"
             style="fill:none;stroke:#d22027;stroke-width:0.29899999;stroke-linecap:butt;stroke-linejoin:miter;stroke-miterlimit:4;stroke-opacity:1;stroke-dasharray:none"
             d="m 483.141,461.78 0,-8.488" />
          <path
             inkscape:connector-curvature="0"
             id="path3064"
             style="fill:none;stroke:#d22027;stroke-width:0.29899999;stroke-linecap:butt;stroke-linejoin:miter;stroke-miterlimit:4;stroke-opacity:1;stroke-dasharray:none"
             d="m 489.309,461.78 0,-8.488" />
          <path
             inkscape:connector-curvature="0"
             id="path3066"
             style="fill:none;stroke:#d22027;stroke-width:0.29899999;stroke-linecap:butt;stroke-linejoin:miter;stroke-miterlimit:4;stroke-opacity:1;stroke-dasharray:none"
             d="m 495.477,461.78 0,-8.488" />
          <path
             inkscape:connector-curvature="0"
             id="path3068"
             style="fill:none;stroke:#d22027;stroke-width:0.29899999;stroke-linecap:butt;stroke-linejoin:miter;stroke-miterlimit:4;stroke-opacity:1;stroke-dasharray:none"
             d="m 501.648,461.78 0,-8.488" />
          <path
             inkscape:connector-curvature="0"
             id="path3070"
             style="fill:none;stroke:#d22027;stroke-width:0.29899999;stroke-linecap:butt;stroke-linejoin:miter;stroke-miterlimit:4;stroke-opacity:1;stroke-dasharray:none"
             d="m 507.816,461.78 0,-8.488" />
          <path
             inkscape:connector-curvature="0"
             id="path3072"
             style="fill:none;stroke:#d22027;stroke-width:0.29899999;stroke-linecap:butt;stroke-linejoin:miter;stroke-miterlimit:4;stroke-opacity:1;stroke-dasharray:none"
             d="m 513.984,461.78 0,-8.488" />
          <path
             inkscape:connector-curvature="0"
             id="path3074"
             style="fill:none;stroke:#d22027;stroke-width:0.29899999;stroke-linecap:butt;stroke-linejoin:miter;stroke-miterlimit:4;stroke-opacity:1;stroke-dasharray:none"
             d="m 520.152,461.78 0,-8.488" />
          <path
             inkscape:connector-curvature="0"
             id="path3076"
             style="fill:none;stroke:#d22027;stroke-width:0.29899999;stroke-linecap:butt;stroke-linejoin:miter;stroke-miterlimit:4;stroke-opacity:1;stroke-dasharray:none"
             d="m 526.32,461.78 0,-8.488" />
          <path
             inkscape:connector-curvature="0"
             id="path3078"
             style="fill:none;stroke:#d22027;stroke-width:0.29899999;stroke-linecap:butt;stroke-linejoin:miter;stroke-miterlimit:4;stroke-opacity:1;stroke-dasharray:none"
             d="m 532.488,461.78 0,-8.488" />
          <path
             inkscape:connector-curvature="0"
             id="path3080"
             style="fill:none;stroke:#d22027;stroke-width:0.29899999;stroke-linecap:butt;stroke-linejoin:miter;stroke-miterlimit:4;stroke-opacity:1;stroke-dasharray:none"
             d="m 538.66,461.78 0,-8.488" />
          <path
             inkscape:connector-curvature="0"
             id="path3082"
             style="fill:none;stroke:#d22027;stroke-width:0.29899999;stroke-linecap:butt;stroke-linejoin:miter;stroke-miterlimit:4;stroke-opacity:1;stroke-dasharray:none"
             d="m 544.828,461.78 0,-8.488" />
          <path
             inkscape:connector-curvature="0"
             id="path3084"
             style="fill:none;stroke:#d22027;stroke-width:0.29899999;stroke-linecap:butt;stroke-linejoin:miter;stroke-miterlimit:4;stroke-opacity:1;stroke-dasharray:none"
             d="m 550.996,461.78 0,-8.488" />
          <path
             inkscape:connector-curvature="0"
             id="path3086"
             style="fill:none;stroke:#d22027;stroke-width:0.29899999;stroke-linecap:butt;stroke-linejoin:miter;stroke-miterlimit:4;stroke-opacity:1;stroke-dasharray:none"
             d="m 557.164,461.78 0,-8.488" />
          <path
             inkscape:connector-curvature="0"
             id="path3088"
             style="fill:none;stroke:#d22027;stroke-width:0.29899999;stroke-linecap:butt;stroke-linejoin:miter;stroke-miterlimit:4;stroke-opacity:1;stroke-dasharray:none"
             d="m 306.668,461.78 0,-8.488" />
          <path
             inkscape:connector-curvature="0"
             id="path3090"
             style="fill:none;stroke:#d22027;stroke-width:0.29899999;stroke-linecap:butt;stroke-linejoin:miter;stroke-miterlimit:4;stroke-opacity:1;stroke-dasharray:none"
             d="m 312.836,461.78 0,-8.488" />
          <path
             inkscape:connector-curvature="0"
             id="path3092"
             style="fill:none;stroke:#d22027;stroke-width:0.29899999;stroke-linecap:butt;stroke-linejoin:miter;stroke-miterlimit:4;stroke-opacity:1;stroke-dasharray:none"
             d="m 319.004,461.78 0,-8.488" />
          <path
             inkscape:connector-curvature="0"
             id="path3094"
             style="fill:none;stroke:#d22027;stroke-width:0.29899999;stroke-linecap:butt;stroke-linejoin:miter;stroke-miterlimit:4;stroke-opacity:1;stroke-dasharray:none"
             d="m 325.176,461.78 0,-8.488" />
          <path
             inkscape:connector-curvature="0"
             id="path3096"
             style="fill:none;stroke:#d22027;stroke-width:0.29899999;stroke-linecap:butt;stroke-linejoin:miter;stroke-miterlimit:4;stroke-opacity:1;stroke-dasharray:none"
             d="m 331.344,461.78 0,-8.488" />
          <path
             inkscape:connector-curvature="0"
             id="path3098"
             style="fill:none;stroke:#d22027;stroke-width:0.29899999;stroke-linecap:butt;stroke-linejoin:miter;stroke-miterlimit:4;stroke-opacity:1;stroke-dasharray:none"
             d="m 337.512,461.78 0,-8.488" />
          <path
             inkscape:connector-curvature="0"
             id="path3100"
             style="fill:none;stroke:#d22027;stroke-width:0.29899999;stroke-linecap:butt;stroke-linejoin:miter;stroke-miterlimit:4;stroke-opacity:1;stroke-dasharray:none"
             d="m 343.68,461.78 0,-8.488" />
          <path
             inkscape:connector-curvature="0"
             id="path3102"
             style="fill:none;stroke:#d22027;stroke-width:0.29899999;stroke-linecap:butt;stroke-linejoin:miter;stroke-miterlimit:4;stroke-opacity:1;stroke-dasharray:none"
             d="m 349.848,461.78 0,-8.488" />
          <path
             inkscape:connector-curvature="0"
             id="path3104"
             style="fill:none;stroke:#d22027;stroke-width:0.29899999;stroke-linecap:butt;stroke-linejoin:miter;stroke-miterlimit:4;stroke-opacity:1;stroke-dasharray:none"
             d="m 356.02,461.78 0,-8.488" />
          <path
             inkscape:connector-curvature="0"
             id="path3106"
             style="fill:none;stroke:#d22027;stroke-width:0.29899999;stroke-linecap:butt;stroke-linejoin:miter;stroke-miterlimit:4;stroke-opacity:1;stroke-dasharray:none"
             d="m 362.188,461.78 0,-8.488" />
          <path
             inkscape:connector-curvature="0"
             id="path3108"
             style="fill:none;stroke:#d22027;stroke-width:0.29899999;stroke-linecap:butt;stroke-linejoin:miter;stroke-miterlimit:4;stroke-opacity:1;stroke-dasharray:none"
             d="m 368.355,461.78 0,-8.488" />
          <path
             inkscape:connector-curvature="0"
             id="path3110"
             style="fill:none;stroke:#d22027;stroke-width:0.29899999;stroke-linecap:butt;stroke-linejoin:miter;stroke-miterlimit:4;stroke-opacity:1;stroke-dasharray:none"
             d="m 374.523,461.78 0,-8.488" />
          <path
             inkscape:connector-curvature="0"
             id="path3112"
             style="fill:none;stroke:#d22027;stroke-width:0.29899999;stroke-linecap:butt;stroke-linejoin:miter;stroke-miterlimit:4;stroke-opacity:1;stroke-dasharray:none"
             d="m 380.691,461.78 0,-8.488" />
          <path
             inkscape:connector-curvature="0"
             id="path3114"
             style="fill:none;stroke:#d22027;stroke-width:0.29899999;stroke-linecap:butt;stroke-linejoin:miter;stroke-miterlimit:4;stroke-opacity:1;stroke-dasharray:none"
             d="m 386.859,461.78 0,-8.488" />
          <path
             inkscape:connector-curvature="0"
             id="path3116"
             style="fill:none;stroke:#d22027;stroke-width:0.29899999;stroke-linecap:butt;stroke-linejoin:miter;stroke-miterlimit:4;stroke-opacity:1;stroke-dasharray:none"
             d="m 393.031,461.78 0,-8.488" />
          <path
             inkscape:connector-curvature="0"
             id="path3118"
             style="fill:none;stroke:#d22027;stroke-width:0.29899999;stroke-linecap:butt;stroke-linejoin:miter;stroke-miterlimit:4;stroke-opacity:1;stroke-dasharray:none"
             d="m 399.199,461.78 0,-8.488" />
          <path
             inkscape:connector-curvature="0"
             id="path3120"
             style="fill:none;stroke:#d22027;stroke-width:0.29899999;stroke-linecap:butt;stroke-linejoin:miter;stroke-miterlimit:4;stroke-opacity:1;stroke-dasharray:none"
             d="m 405.367,461.78 0,-8.488" />
          <path
             inkscape:connector-curvature="0"
             id="path3122"
             style="fill:none;stroke:#d22027;stroke-width:0.29899999;stroke-linecap:butt;stroke-linejoin:miter;stroke-miterlimit:4;stroke-opacity:1;stroke-dasharray:none"
             d="m 411.535,461.78 0,-8.488" />
          <path
             inkscape:connector-curvature="0"
             id="path3124"
             style="fill:none;stroke:#d22027;stroke-width:0.29899999;stroke-linecap:butt;stroke-linejoin:miter;stroke-miterlimit:4;stroke-opacity:1;stroke-dasharray:none"
             d="m 417.703,461.78 0,-8.488" />
          <path
             inkscape:connector-curvature="0"
             id="path3126"
             style="fill:none;stroke:#d22027;stroke-width:0.29899999;stroke-linecap:butt;stroke-linejoin:miter;stroke-miterlimit:4;stroke-opacity:1;stroke-dasharray:none"
             d="m 423.875,461.78 0,-8.488" />
          <path
             inkscape:connector-curvature="0"
             id="path3128"
             style="fill:none;stroke:#d22027;stroke-width:0.29899999;stroke-linecap:butt;stroke-linejoin:miter;stroke-miterlimit:4;stroke-opacity:1;stroke-dasharray:none"
             d="m 430.043,461.78 0,-8.488" />
          <path
             inkscape:connector-curvature="0"
             id="path3130"
             style="fill:none;stroke:#d22027;stroke-width:0.29899999;stroke-linecap:butt;stroke-linejoin:miter;stroke-miterlimit:4;stroke-opacity:1;stroke-dasharray:none"
             d="m 436.211,461.78 0,-8.488" />
          <path
             inkscape:connector-curvature="0"
             id="path3132"
             style="fill:none;stroke:#d22027;stroke-width:0.29899999;stroke-linecap:butt;stroke-linejoin:miter;stroke-miterlimit:4;stroke-opacity:1;stroke-dasharray:none"
             d="m 442.379,461.78 0,-8.488" />
          <path
             inkscape:connector-curvature="0"
             id="path3134"
             style="fill:none;stroke:#d22027;stroke-width:0.29899999;stroke-linecap:butt;stroke-linejoin:miter;stroke-miterlimit:4;stroke-opacity:1;stroke-dasharray:none"
             d="m 448.547,461.78 0,-8.488" />
          <path
             inkscape:connector-curvature="0"
             id="path3136"
             style="fill:none;stroke:#d22027;stroke-width:0.29899999;stroke-linecap:butt;stroke-linejoin:miter;stroke-miterlimit:4;stroke-opacity:1;stroke-dasharray:none"
             d="m 454.719,461.78 0,-8.488" />
          <path
             inkscape:connector-curvature="0"
             id="path3138"
             style="fill:none;stroke:#d22027;stroke-width:0.29899999;stroke-linecap:butt;stroke-linejoin:miter;stroke-miterlimit:4;stroke-opacity:1;stroke-dasharray:none"
             d="m 460.887,461.78 0,-8.488" />
          <path
             inkscape:connector-curvature="0"
             id="path3140"
             style="fill:none;stroke:#d22027;stroke-width:0.29899999;stroke-linecap:butt;stroke-linejoin:miter;stroke-miterlimit:4;stroke-opacity:1;stroke-dasharray:none"
             d="m 467.055,461.78 0,-8.488" />
          <path
             inkscape:connector-curvature="0"
             id="path3142"
             style="fill:none;stroke:#d22027;stroke-width:0.29899999;stroke-linecap:butt;stroke-linejoin:miter;stroke-miterlimit:4;stroke-opacity:1;stroke-dasharray:none"
             d="m 473.223,461.78 0,-8.488" />
          <path
             inkscape:connector-curvature="0"
             id="path3144"
             style="fill:none;stroke:#d22027;stroke-width:0.29899999;stroke-linecap:butt;stroke-linejoin:miter;stroke-miterlimit:4;stroke-opacity:1;stroke-dasharray:none"
             d="m 309.754,461.78 0,-8.488" />
          <path
             inkscape:connector-curvature="0"
             id="path3146"
             style="fill:none;stroke:#d22027;stroke-width:0.29899999;stroke-linecap:butt;stroke-linejoin:miter;stroke-miterlimit:4;stroke-opacity:1;stroke-dasharray:none"
             d="m 315.922,461.78 0,-8.488" />
          <path
             inkscape:connector-curvature="0"
             id="path3148"
             style="fill:none;stroke:#d22027;stroke-width:0.29899999;stroke-linecap:butt;stroke-linejoin:miter;stroke-miterlimit:4;stroke-opacity:1;stroke-dasharray:none"
             d="m 322.09,461.78 0,-8.488" />
          <path
             inkscape:connector-curvature="0"
             id="path3150"
             style="fill:none;stroke:#d22027;stroke-width:0.29899999;stroke-linecap:butt;stroke-linejoin:miter;stroke-miterlimit:4;stroke-opacity:1;stroke-dasharray:none"
             d="m 328.258,461.78 0,-8.488" />
          <path
             inkscape:connector-curvature="0"
             id="path3152"
             style="fill:none;stroke:#d22027;stroke-width:0.29899999;stroke-linecap:butt;stroke-linejoin:miter;stroke-miterlimit:4;stroke-opacity:1;stroke-dasharray:none"
             d="m 334.426,461.78 0,-8.488" />
          <path
             inkscape:connector-curvature="0"
             id="path3154"
             style="fill:none;stroke:#d22027;stroke-width:0.29899999;stroke-linecap:butt;stroke-linejoin:miter;stroke-miterlimit:4;stroke-opacity:1;stroke-dasharray:none"
             d="m 340.598,461.78 0,-8.488" />
          <path
             inkscape:connector-curvature="0"
             id="path3156"
             style="fill:none;stroke:#d22027;stroke-width:0.29899999;stroke-linecap:butt;stroke-linejoin:miter;stroke-miterlimit:4;stroke-opacity:1;stroke-dasharray:none"
             d="m 346.766,461.78 0,-8.488" />
          <path
             inkscape:connector-curvature="0"
             id="path3158"
             style="fill:none;stroke:#d22027;stroke-width:0.29899999;stroke-linecap:butt;stroke-linejoin:miter;stroke-miterlimit:4;stroke-opacity:1;stroke-dasharray:none"
             d="m 352.934,461.78 0,-8.488" />
          <path
             inkscape:connector-curvature="0"
             id="path3160"
             style="fill:none;stroke:#d22027;stroke-width:0.29899999;stroke-linecap:butt;stroke-linejoin:miter;stroke-miterlimit:4;stroke-opacity:1;stroke-dasharray:none"
             d="m 359.102,461.78 0,-8.488" />
          <path
             inkscape:connector-curvature="0"
             id="path3162"
             style="fill:none;stroke:#d22027;stroke-width:0.29899999;stroke-linecap:butt;stroke-linejoin:miter;stroke-miterlimit:4;stroke-opacity:1;stroke-dasharray:none"
             d="m 365.27,461.78 0,-8.488" />
          <path
             inkscape:connector-curvature="0"
             id="path3164"
             style="fill:none;stroke:#d22027;stroke-width:0.29899999;stroke-linecap:butt;stroke-linejoin:miter;stroke-miterlimit:4;stroke-opacity:1;stroke-dasharray:none"
             d="m 371.441,461.78 0,-8.488" />
          <path
             inkscape:connector-curvature="0"
             id="path3166"
             style="fill:none;stroke:#d22027;stroke-width:0.29899999;stroke-linecap:butt;stroke-linejoin:miter;stroke-miterlimit:4;stroke-opacity:1;stroke-dasharray:none"
             d="m 377.609,461.78 0,-8.488" />
          <path
             inkscape:connector-curvature="0"
             id="path3168"
             style="fill:none;stroke:#d22027;stroke-width:0.29899999;stroke-linecap:butt;stroke-linejoin:miter;stroke-miterlimit:4;stroke-opacity:1;stroke-dasharray:none"
             d="m 383.777,461.78 0,-8.488" />
          <path
             inkscape:connector-curvature="0"
             id="path3170"
             style="fill:none;stroke:#d22027;stroke-width:0.29899999;stroke-linecap:butt;stroke-linejoin:miter;stroke-miterlimit:4;stroke-opacity:1;stroke-dasharray:none"
             d="m 389.945,461.78 0,-8.488" />
          <path
             inkscape:connector-curvature="0"
             id="path3172"
             style="fill:none;stroke:#d22027;stroke-width:0.29899999;stroke-linecap:butt;stroke-linejoin:miter;stroke-miterlimit:4;stroke-opacity:1;stroke-dasharray:none"
             d="m 396.113,461.78 0,-8.488" />
          <path
             inkscape:connector-curvature="0"
             id="path3174"
             style="fill:none;stroke:#d22027;stroke-width:0.29899999;stroke-linecap:butt;stroke-linejoin:miter;stroke-miterlimit:4;stroke-opacity:1;stroke-dasharray:none"
             d="m 402.281,461.78 0,-8.488" />
          <path
             inkscape:connector-curvature="0"
             id="path3176"
             style="fill:none;stroke:#d22027;stroke-width:0.29899999;stroke-linecap:butt;stroke-linejoin:miter;stroke-miterlimit:4;stroke-opacity:1;stroke-dasharray:none"
             d="m 408.453,461.78 0,-8.488" />
          <path
             inkscape:connector-curvature="0"
             id="path3178"
             style="fill:none;stroke:#d22027;stroke-width:0.29899999;stroke-linecap:butt;stroke-linejoin:miter;stroke-miterlimit:4;stroke-opacity:1;stroke-dasharray:none"
             d="m 414.621,461.78 0,-8.488" />
          <path
             inkscape:connector-curvature="0"
             id="path3180"
             style="fill:none;stroke:#d22027;stroke-width:0.29899999;stroke-linecap:butt;stroke-linejoin:miter;stroke-miterlimit:4;stroke-opacity:1;stroke-dasharray:none"
             d="m 420.789,461.78 0,-8.488" />
          <path
             inkscape:connector-curvature="0"
             id="path3182"
             style="fill:none;stroke:#d22027;stroke-width:0.29899999;stroke-linecap:butt;stroke-linejoin:miter;stroke-miterlimit:4;stroke-opacity:1;stroke-dasharray:none"
             d="m 426.957,461.78 0,-8.488" />
          <path
             inkscape:connector-curvature="0"
             id="path3184"
             style="fill:none;stroke:#d22027;stroke-width:0.29899999;stroke-linecap:butt;stroke-linejoin:miter;stroke-miterlimit:4;stroke-opacity:1;stroke-dasharray:none"
             d="m 433.125,461.78 0,-8.488" />
          <path
             inkscape:connector-curvature="0"
             id="path3186"
             style="fill:none;stroke:#d22027;stroke-width:0.29899999;stroke-linecap:butt;stroke-linejoin:miter;stroke-miterlimit:4;stroke-opacity:1;stroke-dasharray:none"
             d="m 439.297,461.78 0,-8.488" />
          <path
             inkscape:connector-curvature="0"
             id="path3188"
             style="fill:none;stroke:#d22027;stroke-width:0.29899999;stroke-linecap:butt;stroke-linejoin:miter;stroke-miterlimit:4;stroke-opacity:1;stroke-dasharray:none"
             d="m 445.465,461.78 0,-8.488" />
          <path
             inkscape:connector-curvature="0"
             id="path3190"
             style="fill:none;stroke:#d22027;stroke-width:0.29899999;stroke-linecap:butt;stroke-linejoin:miter;stroke-miterlimit:4;stroke-opacity:1;stroke-dasharray:none"
             d="m 451.633,461.78 0,-8.488" />
          <path
             inkscape:connector-curvature="0"
             id="path3192"
             style="fill:none;stroke:#d22027;stroke-width:0.29899999;stroke-linecap:butt;stroke-linejoin:miter;stroke-miterlimit:4;stroke-opacity:1;stroke-dasharray:none"
             d="m 457.801,461.78 0,-8.488" />
          <path
             inkscape:connector-curvature="0"
             id="path3194"
             style="fill:none;stroke:#d22027;stroke-width:0.29899999;stroke-linecap:butt;stroke-linejoin:miter;stroke-miterlimit:4;stroke-opacity:1;stroke-dasharray:none"
             d="m 463.969,461.78 0,-8.488" />
          <path
             inkscape:connector-curvature="0"
             id="path3196"
             style="fill:none;stroke:#d22027;stroke-width:0.29899999;stroke-linecap:butt;stroke-linejoin:miter;stroke-miterlimit:4;stroke-opacity:1;stroke-dasharray:none"
             d="m 470.141,461.78 0,-8.488" />
          <path
             inkscape:connector-curvature="0"
             id="path3198"
             style="fill:none;stroke:#d22027;stroke-width:0.29899999;stroke-linecap:butt;stroke-linejoin:miter;stroke-miterlimit:4;stroke-opacity:1;stroke-dasharray:none"
             d="m 476.309,461.78 0,-8.488" />
          <path
             inkscape:connector-curvature="0"
             id="path3200"
             style="fill:#104076;fill-opacity:1;fill-rule:nonzero;stroke:none"
             d="m 306.52,453.292 252.633,0 0,-223.367 -252.633,0 0,223.367 z" />
          <path
             inkscape:connector-curvature="0"
             id="path3202"
             style="fill:#be9d04;fill-opacity:1;fill-rule:nonzero;stroke:none"
             d="m 381.742,371.819 16.781,-29.07 81.973,47.328 -16.781,29.071 -81.973,-47.329 z" />
          <path
             inkscape:connector-curvature="0"
             id="path3204"
             style="fill:#fbc707;fill-opacity:1;fill-rule:nonzero;stroke:none"
             d="m 443.691,407.589 16.786,-29.07 71.293,41.16 -16.786,29.07 -71.293,-41.16 z" />
          <path
             inkscape:connector-curvature="0"
             id="path3206"
             style="fill:#f46f1b;fill-opacity:1;fill-rule:nonzero;stroke:none"
             d="m 522.859,453.292 -27.328,-15.773 16.785,-29.071 46.836,27.039 0,17.805 -36.293,0 z" />
          <path
             inkscape:connector-curvature="0"
             id="path3208"
             style="fill:#ec0e58;fill-opacity:1;fill-rule:nonzero;stroke:none"
             d="m 385.316,335.124 16.782,-29.066 81.988,47.332 -16.785,29.07 -81.985,-47.336 z" />
          <path
             inkscape:connector-curvature="0"
             id="path3210"
             style="fill:#00adef;fill-opacity:1;fill-rule:nonzero;stroke:none"
             d="m 464.781,381.007 16.785,-29.07 45.829,26.461 -16.782,29.066 -45.832,-26.457 z" />
          <path
             inkscape:connector-curvature="0"
             id="path3212"
             style="fill:#1a64b7;fill-opacity:1;fill-rule:nonzero;stroke:none"
             d="m 509.633,406.901 16.781,-29.07 32.738,18.899 0,38.757 -49.519,-28.586 z" />
          <path
             inkscape:connector-curvature="0"
             id="path3214"
             style="fill:#9375c1;fill-opacity:1;fill-rule:nonzero;stroke:none"
             d="m 452.262,335.019 16.781,-29.071 66.852,38.598 -16.782,29.07 -66.851,-38.597 z" />
          <path
             inkscape:connector-curvature="0"
             id="path3216"
             style="fill:#b5dc17;fill-opacity:1;fill-rule:nonzero;stroke:none"
             d="m 511.945,369.476 16.785,-29.067 30.422,17.563 0,38.758 -47.207,-27.254 z" />
          <path
             inkscape:connector-curvature="0"
             id="path3218"
             style="fill:#42b23c;fill-opacity:1;fill-rule:nonzero;stroke:none"
             d="m 443.816,291.386 16.786,-29.07 96.753,55.863 -16.785,29.066 -96.754,-55.859 z" />
          <path
             inkscape:connector-curvature="0"
             id="path3220"
             style="fill:#397c1f;fill-opacity:1;fill-rule:nonzero;stroke:none"
             d="m 506.801,327.749 16.781,-29.07 35.57,20.535 0,38.758 -52.351,-30.223 z" />
        </g>
      </g>
      <g
         id="g3222">
        <g
           clip-path="url(#clipPath3226)"
           id="g3224">
          <path
             inkscape:connector-curvature="0"
             id="path3230"
             style="fill:none;stroke:#ffffff;stroke-width:1.64499998;stroke-linecap:butt;stroke-linejoin:miter;stroke-miterlimit:10;stroke-opacity:1;stroke-dasharray:none"
             d="m -590.566,614.441 -19.739,0 m 1161.84,0 19.735,0 m -1161.836,-783.2 -19.739,0 m 1161.84,0 19.735,0 m -1153.942,791.094 0,19.734 m 0,-818.722 0,-19.738 m 1126.313,818.726 0,19.734 m 0,-818.722 0,-19.738" />
          <path
             inkscape:connector-curvature="0"
             id="path3232"
             style="fill:none;stroke:#000000;stroke-width:0.329;stroke-linecap:butt;stroke-linejoin:miter;stroke-miterlimit:10;stroke-opacity:1;stroke-dasharray:none"
             d="m -590.566,614.441 -19.739,0 m 1161.84,0 19.735,0 m -1161.836,-783.2 -19.739,0 m 1161.84,0 19.735,0 m -1153.942,791.094 0,19.734 m 0,-818.722 0,-19.738 m 1126.313,818.726 0,19.734 m 0,-818.722 0,-19.738" />
        </g>
      </g>
      <g
         id="g3234">
        <g
           clip-path="url(#clipPath3238)"
           id="g3236">
          <path
             inkscape:connector-curvature="0"
             id="path3242"
             style="fill:#294787;fill-opacity:1;fill-rule:nonzero;stroke:none"
             d="m 36.125,586.464 253.414,0 0,-356.539 -253.414,0 0,356.539 z" />
          <path
             inkscape:connector-curvature="0"
             id="path3244"
             style="fill:none;stroke:#ffffff;stroke-width:0.29899999;stroke-linecap:butt;stroke-linejoin:miter;stroke-miterlimit:4;stroke-opacity:1;stroke-dasharray:none"
             d="m 119.75,461.78 0,-8.488" />
          <path
             inkscape:connector-curvature="0"
             id="path3246"
             style="fill:none;stroke:#ffffff;stroke-width:0.29899999;stroke-linecap:butt;stroke-linejoin:miter;stroke-miterlimit:4;stroke-opacity:1;stroke-dasharray:none"
             d="m 125.922,461.78 0,-8.488" />
          <path
             inkscape:connector-curvature="0"
             id="path3248"
             style="fill:none;stroke:#ffffff;stroke-width:0.29899999;stroke-linecap:butt;stroke-linejoin:miter;stroke-miterlimit:4;stroke-opacity:1;stroke-dasharray:none"
             d="m 132.09,461.78 0,-8.488" />
          <path
             inkscape:connector-curvature="0"
             id="path3250"
             style="fill:none;stroke:#ffffff;stroke-width:0.29899999;stroke-linecap:butt;stroke-linejoin:miter;stroke-miterlimit:4;stroke-opacity:1;stroke-dasharray:none"
             d="m 138.258,461.78 0,-8.488" />
          <path
             inkscape:connector-curvature="0"
             id="path3252"
             style="fill:none;stroke:#ffffff;stroke-width:0.29899999;stroke-linecap:butt;stroke-linejoin:miter;stroke-miterlimit:4;stroke-opacity:1;stroke-dasharray:none"
             d="m 144.426,461.78 0,-8.488" />
          <path
             inkscape:connector-curvature="0"
             id="path3254"
             style="fill:none;stroke:#ffffff;stroke-width:0.29899999;stroke-linecap:butt;stroke-linejoin:miter;stroke-miterlimit:4;stroke-opacity:1;stroke-dasharray:none"
             d="m 150.594,461.78 0,-8.488" />
          <path
             inkscape:connector-curvature="0"
             id="path3256"
             style="fill:none;stroke:#ffffff;stroke-width:0.29899999;stroke-linecap:butt;stroke-linejoin:miter;stroke-miterlimit:4;stroke-opacity:1;stroke-dasharray:none"
             d="m 156.762,461.78 0,-8.488" />
          <path
             inkscape:connector-curvature="0"
             id="path3258"
             style="fill:none;stroke:#ffffff;stroke-width:0.29899999;stroke-linecap:butt;stroke-linejoin:miter;stroke-miterlimit:4;stroke-opacity:1;stroke-dasharray:none"
             d="m 162.934,461.78 0,-8.488" />
          <path
             inkscape:connector-curvature="0"
             id="path3260"
             style="fill:none;stroke:#ffffff;stroke-width:0.29899999;stroke-linecap:butt;stroke-linejoin:miter;stroke-miterlimit:4;stroke-opacity:1;stroke-dasharray:none"
             d="m 169.102,461.78 0,-8.488" />
          <path
             inkscape:connector-curvature="0"
             id="path3262"
             style="fill:none;stroke:#ffffff;stroke-width:0.29899999;stroke-linecap:butt;stroke-linejoin:miter;stroke-miterlimit:4;stroke-opacity:1;stroke-dasharray:none"
             d="m 175.27,461.78 0,-8.488" />
          <path
             inkscape:connector-curvature="0"
             id="path3264"
             style="fill:none;stroke:#ffffff;stroke-width:0.29899999;stroke-linecap:butt;stroke-linejoin:miter;stroke-miterlimit:4;stroke-opacity:1;stroke-dasharray:none"
             d="m 181.438,461.78 0,-8.488" />
          <path
             inkscape:connector-curvature="0"
             id="path3266"
             style="fill:none;stroke:#ffffff;stroke-width:0.29899999;stroke-linecap:butt;stroke-linejoin:miter;stroke-miterlimit:4;stroke-opacity:1;stroke-dasharray:none"
             d="m 187.605,461.78 0,-8.488" />
          <path
             inkscape:connector-curvature="0"
             id="path3268"
             style="fill:none;stroke:#ffffff;stroke-width:0.29899999;stroke-linecap:butt;stroke-linejoin:miter;stroke-miterlimit:4;stroke-opacity:1;stroke-dasharray:none"
             d="m 193.777,461.78 0,-8.488" />
          <path
             inkscape:connector-curvature="0"
             id="path3270"
             style="fill:none;stroke:#ffffff;stroke-width:0.29899999;stroke-linecap:butt;stroke-linejoin:miter;stroke-miterlimit:4;stroke-opacity:1;stroke-dasharray:none"
             d="m 199.945,461.78 0,-8.488" />
          <path
             inkscape:connector-curvature="0"
             id="path3272"
             style="fill:none;stroke:#ffffff;stroke-width:0.29899999;stroke-linecap:butt;stroke-linejoin:miter;stroke-miterlimit:4;stroke-opacity:1;stroke-dasharray:none"
             d="m 206.113,461.78 0,-8.488" />
          <path
             inkscape:connector-curvature="0"
             id="path3274"
             style="fill:none;stroke:#ffffff;stroke-width:0.29899999;stroke-linecap:butt;stroke-linejoin:miter;stroke-miterlimit:4;stroke-opacity:1;stroke-dasharray:none"
             d="m 212.281,461.78 0,-8.488" />
          <path
             inkscape:connector-curvature="0"
             id="path3276"
             style="fill:none;stroke:#ffffff;stroke-width:0.29899999;stroke-linecap:butt;stroke-linejoin:miter;stroke-miterlimit:4;stroke-opacity:1;stroke-dasharray:none"
             d="m 218.449,461.78 0,-8.488" />
          <path
             inkscape:connector-curvature="0"
             id="path3278"
             style="fill:none;stroke:#ffffff;stroke-width:0.29899999;stroke-linecap:butt;stroke-linejoin:miter;stroke-miterlimit:4;stroke-opacity:1;stroke-dasharray:none"
             d="m 224.621,461.78 0,-8.488" />
          <path
             inkscape:connector-curvature="0"
             id="path3280"
             style="fill:none;stroke:#ffffff;stroke-width:0.29899999;stroke-linecap:butt;stroke-linejoin:miter;stroke-miterlimit:4;stroke-opacity:1;stroke-dasharray:none"
             d="m 230.789,461.78 0,-8.488" />
          <path
             inkscape:connector-curvature="0"
             id="path3282"
             style="fill:none;stroke:#ffffff;stroke-width:0.29899999;stroke-linecap:butt;stroke-linejoin:miter;stroke-miterlimit:4;stroke-opacity:1;stroke-dasharray:none"
             d="m 236.957,461.78 0,-8.488" />
          <path
             inkscape:connector-curvature="0"
             id="path3284"
             style="fill:none;stroke:#ffffff;stroke-width:0.29899999;stroke-linecap:butt;stroke-linejoin:miter;stroke-miterlimit:4;stroke-opacity:1;stroke-dasharray:none"
             d="m 243.125,461.78 0,-8.488" />
          <path
             inkscape:connector-curvature="0"
             id="path3286"
             style="fill:none;stroke:#ffffff;stroke-width:0.29899999;stroke-linecap:butt;stroke-linejoin:miter;stroke-miterlimit:4;stroke-opacity:1;stroke-dasharray:none"
             d="m 249.293,461.78 0,-8.488" />
          <path
             inkscape:connector-curvature="0"
             id="path3288"
             style="fill:none;stroke:#ffffff;stroke-width:0.29899999;stroke-linecap:butt;stroke-linejoin:miter;stroke-miterlimit:4;stroke-opacity:1;stroke-dasharray:none"
             d="m 255.461,461.78 0,-8.488" />
          <path
             inkscape:connector-curvature="0"
             id="path3290"
             style="fill:none;stroke:#ffffff;stroke-width:0.29899999;stroke-linecap:butt;stroke-linejoin:miter;stroke-miterlimit:4;stroke-opacity:1;stroke-dasharray:none"
             d="m 261.633,461.78 0,-8.488" />
          <path
             inkscape:connector-curvature="0"
             id="path3292"
             style="fill:none;stroke:#ffffff;stroke-width:0.29899999;stroke-linecap:butt;stroke-linejoin:miter;stroke-miterlimit:4;stroke-opacity:1;stroke-dasharray:none"
             d="m 267.801,461.78 0,-8.488" />
          <path
             inkscape:connector-curvature="0"
             id="path3294"
             style="fill:none;stroke:#ffffff;stroke-width:0.29899999;stroke-linecap:butt;stroke-linejoin:miter;stroke-miterlimit:4;stroke-opacity:1;stroke-dasharray:none"
             d="m 273.969,461.78 0,-8.488" />
          <path
             inkscape:connector-curvature="0"
             id="path3296"
             style="fill:none;stroke:#ffffff;stroke-width:0.29899999;stroke-linecap:butt;stroke-linejoin:miter;stroke-miterlimit:4;stroke-opacity:1;stroke-dasharray:none"
             d="m 280.137,461.78 0,-8.488" />
          <path
             inkscape:connector-curvature="0"
             id="path3298"
             style="fill:none;stroke:#ffffff;stroke-width:0.29899999;stroke-linecap:butt;stroke-linejoin:miter;stroke-miterlimit:4;stroke-opacity:1;stroke-dasharray:none"
             d="m 286.305,461.78 0,-8.488" />
          <path
             inkscape:connector-curvature="0"
             id="path3300"
             style="fill:none;stroke:#ffffff;stroke-width:0.29899999;stroke-linecap:butt;stroke-linejoin:miter;stroke-miterlimit:4;stroke-opacity:1;stroke-dasharray:none"
             d="m 122.836,461.78 0,-8.488" />
          <path
             inkscape:connector-curvature="0"
             id="path3302"
             style="fill:none;stroke:#ffffff;stroke-width:0.29899999;stroke-linecap:butt;stroke-linejoin:miter;stroke-miterlimit:4;stroke-opacity:1;stroke-dasharray:none"
             d="m 129.004,461.78 0,-8.488" />
          <path
             inkscape:connector-curvature="0"
             id="path3304"
             style="fill:none;stroke:#ffffff;stroke-width:0.29899999;stroke-linecap:butt;stroke-linejoin:miter;stroke-miterlimit:4;stroke-opacity:1;stroke-dasharray:none"
             d="m 135.172,461.78 0,-8.488" />
          <path
             inkscape:connector-curvature="0"
             id="path3306"
             style="fill:none;stroke:#ffffff;stroke-width:0.29899999;stroke-linecap:butt;stroke-linejoin:miter;stroke-miterlimit:4;stroke-opacity:1;stroke-dasharray:none"
             d="m 141.344,461.78 0,-8.488" />
          <path
             inkscape:connector-curvature="0"
             id="path3308"
             style="fill:none;stroke:#ffffff;stroke-width:0.29899999;stroke-linecap:butt;stroke-linejoin:miter;stroke-miterlimit:4;stroke-opacity:1;stroke-dasharray:none"
             d="m 147.512,461.78 0,-8.488" />
          <path
             inkscape:connector-curvature="0"
             id="path3310"
             style="fill:none;stroke:#ffffff;stroke-width:0.29899999;stroke-linecap:butt;stroke-linejoin:miter;stroke-miterlimit:4;stroke-opacity:1;stroke-dasharray:none"
             d="m 153.68,461.78 0,-8.488" />
          <path
             inkscape:connector-curvature="0"
             id="path3312"
             style="fill:none;stroke:#ffffff;stroke-width:0.29899999;stroke-linecap:butt;stroke-linejoin:miter;stroke-miterlimit:4;stroke-opacity:1;stroke-dasharray:none"
             d="m 159.848,461.78 0,-8.488" />
          <path
             inkscape:connector-curvature="0"
             id="path3314"
             style="fill:none;stroke:#ffffff;stroke-width:0.29899999;stroke-linecap:butt;stroke-linejoin:miter;stroke-miterlimit:4;stroke-opacity:1;stroke-dasharray:none"
             d="m 166.016,461.78 0,-8.488" />
          <path
             inkscape:connector-curvature="0"
             id="path3316"
             style="fill:none;stroke:#ffffff;stroke-width:0.29899999;stroke-linecap:butt;stroke-linejoin:miter;stroke-miterlimit:4;stroke-opacity:1;stroke-dasharray:none"
             d="m 172.184,461.78 0,-8.488" />
          <path
             inkscape:connector-curvature="0"
             id="path3318"
             style="fill:none;stroke:#ffffff;stroke-width:0.29899999;stroke-linecap:butt;stroke-linejoin:miter;stroke-miterlimit:4;stroke-opacity:1;stroke-dasharray:none"
             d="m 178.355,461.78 0,-8.488" />
          <path
             inkscape:connector-curvature="0"
             id="path3320"
             style="fill:none;stroke:#ffffff;stroke-width:0.29899999;stroke-linecap:butt;stroke-linejoin:miter;stroke-miterlimit:4;stroke-opacity:1;stroke-dasharray:none"
             d="m 184.523,461.78 0,-8.488" />
          <path
             inkscape:connector-curvature="0"
             id="path3322"
             style="fill:none;stroke:#ffffff;stroke-width:0.29899999;stroke-linecap:butt;stroke-linejoin:miter;stroke-miterlimit:4;stroke-opacity:1;stroke-dasharray:none"
             d="m 190.691,461.78 0,-8.488" />
          <path
             inkscape:connector-curvature="0"
             id="path3324"
             style="fill:none;stroke:#ffffff;stroke-width:0.29899999;stroke-linecap:butt;stroke-linejoin:miter;stroke-miterlimit:4;stroke-opacity:1;stroke-dasharray:none"
             d="m 196.859,461.78 0,-8.488" />
          <path
             inkscape:connector-curvature="0"
             id="path3326"
             style="fill:none;stroke:#ffffff;stroke-width:0.29899999;stroke-linecap:butt;stroke-linejoin:miter;stroke-miterlimit:4;stroke-opacity:1;stroke-dasharray:none"
             d="m 203.027,461.78 0,-8.488" />
          <path
             inkscape:connector-curvature="0"
             id="path3328"
             style="fill:none;stroke:#ffffff;stroke-width:0.29899999;stroke-linecap:butt;stroke-linejoin:miter;stroke-miterlimit:4;stroke-opacity:1;stroke-dasharray:none"
             d="m 209.199,461.78 0,-8.488" />
          <path
             inkscape:connector-curvature="0"
             id="path3330"
             style="fill:none;stroke:#ffffff;stroke-width:0.29899999;stroke-linecap:butt;stroke-linejoin:miter;stroke-miterlimit:4;stroke-opacity:1;stroke-dasharray:none"
             d="m 215.367,461.78 0,-8.488" />
          <path
             inkscape:connector-curvature="0"
             id="path3332"
             style="fill:none;stroke:#ffffff;stroke-width:0.29899999;stroke-linecap:butt;stroke-linejoin:miter;stroke-miterlimit:4;stroke-opacity:1;stroke-dasharray:none"
             d="m 221.535,461.78 0,-8.488" />
          <path
             inkscape:connector-curvature="0"
             id="path3334"
             style="fill:none;stroke:#ffffff;stroke-width:0.29899999;stroke-linecap:butt;stroke-linejoin:miter;stroke-miterlimit:4;stroke-opacity:1;stroke-dasharray:none"
             d="m 227.703,461.78 0,-8.488" />
          <path
             inkscape:connector-curvature="0"
             id="path3336"
             style="fill:none;stroke:#ffffff;stroke-width:0.29899999;stroke-linecap:butt;stroke-linejoin:miter;stroke-miterlimit:4;stroke-opacity:1;stroke-dasharray:none"
             d="m 233.871,461.78 0,-8.488" />
          <path
             inkscape:connector-curvature="0"
             id="path3338"
             style="fill:none;stroke:#ffffff;stroke-width:0.29899999;stroke-linecap:butt;stroke-linejoin:miter;stroke-miterlimit:4;stroke-opacity:1;stroke-dasharray:none"
             d="m 240.039,461.78 0,-8.488" />
          <path
             inkscape:connector-curvature="0"
             id="path3340"
             style="fill:none;stroke:#ffffff;stroke-width:0.29899999;stroke-linecap:butt;stroke-linejoin:miter;stroke-miterlimit:4;stroke-opacity:1;stroke-dasharray:none"
             d="m 246.211,461.78 0,-8.488" />
          <path
             inkscape:connector-curvature="0"
             id="path3342"
             style="fill:none;stroke:#ffffff;stroke-width:0.29899999;stroke-linecap:butt;stroke-linejoin:miter;stroke-miterlimit:4;stroke-opacity:1;stroke-dasharray:none"
             d="m 252.379,461.78 0,-8.488" />
          <path
             inkscape:connector-curvature="0"
             id="path3344"
             style="fill:none;stroke:#ffffff;stroke-width:0.29899999;stroke-linecap:butt;stroke-linejoin:miter;stroke-miterlimit:4;stroke-opacity:1;stroke-dasharray:none"
             d="m 258.547,461.78 0,-8.488" />
          <path
             inkscape:connector-curvature="0"
             id="path3346"
             style="fill:none;stroke:#ffffff;stroke-width:0.29899999;stroke-linecap:butt;stroke-linejoin:miter;stroke-miterlimit:4;stroke-opacity:1;stroke-dasharray:none"
             d="m 264.715,461.78 0,-8.488" />
          <path
             inkscape:connector-curvature="0"
             id="path3348"
             style="fill:none;stroke:#ffffff;stroke-width:0.29899999;stroke-linecap:butt;stroke-linejoin:miter;stroke-miterlimit:4;stroke-opacity:1;stroke-dasharray:none"
             d="m 270.883,461.78 0,-8.488" />
          <path
             inkscape:connector-curvature="0"
             id="path3350"
             style="fill:none;stroke:#ffffff;stroke-width:0.29899999;stroke-linecap:butt;stroke-linejoin:miter;stroke-miterlimit:4;stroke-opacity:1;stroke-dasharray:none"
             d="m 277.055,461.78 0,-8.488" />
          <path
             inkscape:connector-curvature="0"
             id="path3352"
             style="fill:none;stroke:#ffffff;stroke-width:0.29899999;stroke-linecap:butt;stroke-linejoin:miter;stroke-miterlimit:4;stroke-opacity:1;stroke-dasharray:none"
             d="m 283.223,461.78 0,-8.488" />
          <path
             inkscape:connector-curvature="0"
             id="path3354"
             style="fill:none;stroke:#ffffff;stroke-width:0.29899999;stroke-linecap:butt;stroke-linejoin:miter;stroke-miterlimit:4;stroke-opacity:1;stroke-dasharray:none"
             d="m 289.391,461.78 0,-8.488" />
          <path
             inkscape:connector-curvature="0"
             id="path3356"
             style="fill:none;stroke:#ffffff;stroke-width:0.29899999;stroke-linecap:butt;stroke-linejoin:miter;stroke-miterlimit:4;stroke-opacity:1;stroke-dasharray:none"
             d="m 38.895,461.78 0,-8.488" />
          <path
             inkscape:connector-curvature="0"
             id="path3358"
             style="fill:none;stroke:#ffffff;stroke-width:0.29899999;stroke-linecap:butt;stroke-linejoin:miter;stroke-miterlimit:4;stroke-opacity:1;stroke-dasharray:none"
             d="m 45.062,461.78 0,-8.488" />
          <path
             inkscape:connector-curvature="0"
             id="path3360"
             style="fill:none;stroke:#ffffff;stroke-width:0.29899999;stroke-linecap:butt;stroke-linejoin:miter;stroke-miterlimit:4;stroke-opacity:1;stroke-dasharray:none"
             d="m 51.23,461.78 0,-8.488" />
          <path
             inkscape:connector-curvature="0"
             id="path3362"
             style="fill:none;stroke:#ffffff;stroke-width:0.29899999;stroke-linecap:butt;stroke-linejoin:miter;stroke-miterlimit:4;stroke-opacity:1;stroke-dasharray:none"
             d="m 57.398,461.78 0,-8.488" />
          <path
             inkscape:connector-curvature="0"
             id="path3364"
             style="fill:none;stroke:#ffffff;stroke-width:0.29899999;stroke-linecap:butt;stroke-linejoin:miter;stroke-miterlimit:4;stroke-opacity:1;stroke-dasharray:none"
             d="m 63.57,461.78 0,-8.488" />
          <path
             inkscape:connector-curvature="0"
             id="path3366"
             style="fill:none;stroke:#ffffff;stroke-width:0.29899999;stroke-linecap:butt;stroke-linejoin:miter;stroke-miterlimit:4;stroke-opacity:1;stroke-dasharray:none"
             d="m 69.738,461.78 0,-8.488" />
          <path
             inkscape:connector-curvature="0"
             id="path3368"
             style="fill:none;stroke:#ffffff;stroke-width:0.29899999;stroke-linecap:butt;stroke-linejoin:miter;stroke-miterlimit:4;stroke-opacity:1;stroke-dasharray:none"
             d="m 75.906,461.78 0,-8.488" />
          <path
             inkscape:connector-curvature="0"
             id="path3370"
             style="fill:none;stroke:#ffffff;stroke-width:0.29899999;stroke-linecap:butt;stroke-linejoin:miter;stroke-miterlimit:4;stroke-opacity:1;stroke-dasharray:none"
             d="m 82.074,461.78 0,-8.488" />
          <path
             inkscape:connector-curvature="0"
             id="path3372"
             style="fill:none;stroke:#ffffff;stroke-width:0.29899999;stroke-linecap:butt;stroke-linejoin:miter;stroke-miterlimit:4;stroke-opacity:1;stroke-dasharray:none"
             d="m 88.242,461.78 0,-8.488" />
          <path
             inkscape:connector-curvature="0"
             id="path3374"
             style="fill:none;stroke:#ffffff;stroke-width:0.29899999;stroke-linecap:butt;stroke-linejoin:miter;stroke-miterlimit:4;stroke-opacity:1;stroke-dasharray:none"
             d="m 94.414,461.78 0,-8.488" />
          <path
             inkscape:connector-curvature="0"
             id="path3376"
             style="fill:none;stroke:#ffffff;stroke-width:0.29899999;stroke-linecap:butt;stroke-linejoin:miter;stroke-miterlimit:4;stroke-opacity:1;stroke-dasharray:none"
             d="m 100.582,461.78 0,-8.488" />
          <path
             inkscape:connector-curvature="0"
             id="path3378"
             style="fill:none;stroke:#ffffff;stroke-width:0.29899999;stroke-linecap:butt;stroke-linejoin:miter;stroke-miterlimit:4;stroke-opacity:1;stroke-dasharray:none"
             d="m 106.75,461.78 0,-8.488" />
          <path
             inkscape:connector-curvature="0"
             id="path3380"
             style="fill:none;stroke:#ffffff;stroke-width:0.29899999;stroke-linecap:butt;stroke-linejoin:miter;stroke-miterlimit:4;stroke-opacity:1;stroke-dasharray:none"
             d="m 112.918,461.78 0,-8.488" />
          <path
             inkscape:connector-curvature="0"
             id="path3382"
             style="fill:none;stroke:#ffffff;stroke-width:0.29899999;stroke-linecap:butt;stroke-linejoin:miter;stroke-miterlimit:4;stroke-opacity:1;stroke-dasharray:none"
             d="m 41.977,461.78 0,-8.488" />
          <path
             inkscape:connector-curvature="0"
             id="path3384"
             style="fill:none;stroke:#ffffff;stroke-width:0.29899999;stroke-linecap:butt;stroke-linejoin:miter;stroke-miterlimit:4;stroke-opacity:1;stroke-dasharray:none"
             d="m 48.148,461.78 0,-8.488" />
          <path
             inkscape:connector-curvature="0"
             id="path3386"
             style="fill:none;stroke:#ffffff;stroke-width:0.29899999;stroke-linecap:butt;stroke-linejoin:miter;stroke-miterlimit:4;stroke-opacity:1;stroke-dasharray:none"
             d="m 54.316,461.78 0,-8.488" />
          <path
             inkscape:connector-curvature="0"
             id="path3388"
             style="fill:none;stroke:#ffffff;stroke-width:0.29899999;stroke-linecap:butt;stroke-linejoin:miter;stroke-miterlimit:4;stroke-opacity:1;stroke-dasharray:none"
             d="m 60.484,461.78 0,-8.488" />
          <path
             inkscape:connector-curvature="0"
             id="path3390"
             style="fill:none;stroke:#ffffff;stroke-width:0.29899999;stroke-linecap:butt;stroke-linejoin:miter;stroke-miterlimit:4;stroke-opacity:1;stroke-dasharray:none"
             d="m 66.652,461.78 0,-8.488" />
          <path
             inkscape:connector-curvature="0"
             id="path3392"
             style="fill:none;stroke:#ffffff;stroke-width:0.29899999;stroke-linecap:butt;stroke-linejoin:miter;stroke-miterlimit:4;stroke-opacity:1;stroke-dasharray:none"
             d="m 72.82,461.78 0,-8.488" />
          <path
             inkscape:connector-curvature="0"
             id="path3394"
             style="fill:none;stroke:#ffffff;stroke-width:0.29899999;stroke-linecap:butt;stroke-linejoin:miter;stroke-miterlimit:4;stroke-opacity:1;stroke-dasharray:none"
             d="m 78.992,461.78 0,-8.488" />
          <path
             inkscape:connector-curvature="0"
             id="path3396"
             style="fill:none;stroke:#ffffff;stroke-width:0.29899999;stroke-linecap:butt;stroke-linejoin:miter;stroke-miterlimit:4;stroke-opacity:1;stroke-dasharray:none"
             d="m 85.16,461.78 0,-8.488" />
          <path
             inkscape:connector-curvature="0"
             id="path3398"
             style="fill:none;stroke:#ffffff;stroke-width:0.29899999;stroke-linecap:butt;stroke-linejoin:miter;stroke-miterlimit:4;stroke-opacity:1;stroke-dasharray:none"
             d="m 91.328,461.78 0,-8.488" />
          <path
             inkscape:connector-curvature="0"
             id="path3400"
             style="fill:none;stroke:#ffffff;stroke-width:0.29899999;stroke-linecap:butt;stroke-linejoin:miter;stroke-miterlimit:4;stroke-opacity:1;stroke-dasharray:none"
             d="m 97.496,461.78 0,-8.488" />
          <path
             inkscape:connector-curvature="0"
             id="path3402"
             style="fill:none;stroke:#ffffff;stroke-width:0.29899999;stroke-linecap:butt;stroke-linejoin:miter;stroke-miterlimit:4;stroke-opacity:1;stroke-dasharray:none"
             d="m 103.664,461.78 0,-8.488" />
          <path
             inkscape:connector-curvature="0"
             id="path3404"
             style="fill:none;stroke:#ffffff;stroke-width:0.29899999;stroke-linecap:butt;stroke-linejoin:miter;stroke-miterlimit:4;stroke-opacity:1;stroke-dasharray:none"
             d="m 109.836,461.78 0,-8.488" />
          <path
             inkscape:connector-curvature="0"
             id="path3406"
             style="fill:none;stroke:#ffffff;stroke-width:0.29899999;stroke-linecap:butt;stroke-linejoin:miter;stroke-miterlimit:4;stroke-opacity:1;stroke-dasharray:none"
             d="m 116.004,461.78 0,-8.488" />
        </g>
      </g>
      <g
         id="g3446">
        <g
           clip-path="url(#clipPath3450)"
           id="g3448">
          <path
             inkscape:connector-curvature="0"
             id="path3454"
             style="fill:#ffffff;fill-opacity:1;fill-rule:nonzero;stroke:none"
             d="m 335.199,564.175 c -0.051,0.226 0.219,0.578 0.274,0.617 0.058,0.039 0.109,0.199 0.109,0.199 l 0.027,0.016 0.004,0 c 0.035,-0.047 0.078,-0.086 0.133,-0.117 l 0.176,-0.141 c 0,0 0.109,-0.019 0.137,-0.023 0.027,0 0.105,-0.032 0.136,-0.106 0.035,-0.074 0.117,-0.367 0.285,-0.32 l 0.118,0.113 c 0,0 0.175,-0.07 0.207,-0.086 0.027,-0.011 0.3,-0.148 0.629,0.317 0,0 -0.356,-0.594 -0.485,-0.739 -0.066,-0.074 -0.187,-0.132 -0.285,-0.168 -0.09,-0.031 -0.156,-0.05 -0.156,-0.05 l -1.031,-0.121 -0.11,-0.016 c 0,0 -0.117,0.394 -0.168,0.625" />
          <path
             inkscape:connector-curvature="0"
             id="path3456"
             style="fill:#ffffff;fill-opacity:1;fill-rule:nonzero;stroke:none"
             d="m 336.496,568.448 0,0 c 0.024,0.02 0.047,0.043 0.074,0.078 0.075,0.098 0.024,0.329 0.028,0.36 0,0.031 0.027,0.101 0.082,0.144 0.058,0.047 0.058,0.223 0.058,0.262 0.004,0.035 0.067,0.078 0.098,0.117 0.035,0.039 -0.024,0.239 -0.027,0.297 -0.008,0.055 0.007,0.102 0.027,0.156 l 0.039,-0.015 c 0,0 0.711,-0.25 1.16,-1 0,0 0.168,-0.289 0.168,-0.434 0,-0.051 0,-0.066 0,-0.07 l -0.012,-0.02 c 0.266,-0.187 0.395,-0.355 0.395,-0.355 l -0.113,-0.031 c -0.532,-0.09 -0.914,-0.239 -1.211,-0.414 -0.071,-0.012 -0.141,-0.036 -0.203,-0.059 l -0.008,0.016 c -0.672,0.476 -0.551,0.964 -0.551,0.964 l -0.004,0.004 z" />
          <path
             inkscape:connector-curvature="0"
             id="path3458"
             style="fill:#ffffff;fill-opacity:1;fill-rule:nonzero;stroke:none"
             d="m 335.965,559.03 c -0.238,0.032 -0.199,0.286 -0.199,0.286 0,0 0.101,0.312 0.121,0.363 0.019,0.051 0.015,0.219 0.008,0.316 -0.012,0.098 0.089,0.336 0.183,0.469 0.094,0.133 0.07,0.465 0.067,0.547 -0.004,0.078 -0.012,0.918 -0.012,0.918 l -0.016,0.008 c 0.039,0.07 0.074,0.136 0.106,0.207 l 0.023,-0.012 c 0.43,0.098 0.809,0.148 1.094,0.172 l 0.004,-0.047 c -0.067,-0.836 -0.262,-1.129 -0.262,-1.129 0,0 -0.406,-0.617 -0.461,-0.695 -0.055,-0.082 -0.043,-0.305 -0.039,-0.364 0,-0.054 -0.039,-0.183 -0.039,-0.183 -0.027,-0.098 0.051,-0.25 0.113,-0.332 0.063,-0.078 0.156,-0.133 0.192,-0.219 0.035,-0.082 -0.067,-0.211 -0.192,-0.273 -0.125,-0.067 -0.453,-0.063 -0.691,-0.032" />
          <path
             inkscape:connector-curvature="0"
             id="path3460"
             style="fill:#ffffff;fill-opacity:1;fill-rule:nonzero;stroke:none"
             d="m 334.688,569.925 c 0.003,0.113 0.124,0.441 0.132,0.5 0.012,0.059 0.094,0.305 0.157,0.41 0.019,0.035 0.058,0.086 0.105,0.141 0.09,0.101 0.203,0.211 0.238,0.242 0.059,0.043 0.418,0.129 0.418,0.129 0,0 0.426,0.047 0.66,-0.192 0,0 0.262,-0.011 0.34,-0.179 0.074,-0.168 0.223,-0.438 0.207,-0.516 -0.015,-0.082 -0.066,-0.164 -0.058,-0.207 0.011,-0.047 -0.016,-0.297 -0.043,-0.363 0,-0.012 -0.004,-0.02 -0.008,-0.028 -0.02,-0.054 -0.035,-0.105 -0.027,-0.156 0.007,-0.058 0.062,-0.254 0.031,-0.297 -0.035,-0.039 -0.098,-0.078 -0.102,-0.117 0,-0.039 0,-0.215 -0.058,-0.262 -0.055,-0.043 -0.082,-0.113 -0.082,-0.144 -0.004,-0.031 0.047,-0.262 -0.028,-0.36 -0.027,-0.031 -0.05,-0.058 -0.074,-0.074 -0.043,-0.035 -0.074,-0.043 -0.09,-0.023 -0.015,0.027 -0.07,-0.074 -0.07,-0.067 l -0.024,-0.066 c 0,0 -0.019,-0.164 -0.054,-0.148 -0.039,0.011 -0.098,0.187 -0.098,0.187 l 0.067,0.391 0.05,0.48 0,0.024 0.375,0.613 c 0.008,0.039 -0.035,0.262 -0.082,0.305 -0.047,0.039 -0.175,0.187 -0.183,0.242 -0.008,0.054 -0.051,0.234 -0.051,0.234 0,0 -0.277,-0.226 -0.34,-0.258 -0.062,-0.035 -0.262,0.004 -0.316,0.008 -0.055,0 -0.18,-0.035 -0.211,-0.094 -0.031,-0.066 -0.141,-0.257 -0.168,-0.3 -0.031,-0.039 -0.063,-0.243 -0.063,-0.34 0,-0.051 -0.023,-0.09 -0.05,-0.129 -0.024,-0.035 -0.047,-0.07 -0.063,-0.102 -0.023,-0.066 0.012,-0.133 0.023,-0.242 0.016,-0.109 -0.007,-0.289 -0.019,-0.344 -0.016,-0.054 -0.106,-0.054 -0.125,-0.05 -0.024,0 -0.141,-0.067 -0.141,-0.067 0,0 0.024,0.149 0.035,0.184 0.004,0.039 -0.093,0.254 -0.117,0.324 -0.023,0.074 -0.093,0.598 -0.093,0.711" />
          <path
             inkscape:connector-curvature="0"
             id="path3462"
             style="fill:#ffffff;fill-opacity:1;fill-rule:nonzero;stroke:none"
             d="m 334.418,557.753 -0.109,-0.023 0.105,0.754 -0.004,0 c 0.004,0.007 0.063,0.109 0.09,0.222 0.027,0.129 0.117,0.445 0.211,0.594 0.098,0.152 0.281,0.164 0.281,0.164 l 0.02,-0.195 0.191,-1.364 -0.035,-0.097 -0.359,0.933 -0.391,-0.988 z" />
          <path
             inkscape:connector-curvature="0"
             id="path3464"
             style="fill:#ffffff;fill-opacity:1;fill-rule:nonzero;stroke:none"
             d="m 335.238,569.64 c 0,0.097 0.032,0.301 0.063,0.34 0.027,0.043 0.137,0.234 0.168,0.296 0.031,0.063 0.156,0.098 0.211,0.094 0.054,0 0.254,-0.039 0.316,-0.008 0.063,0.036 0.34,0.262 0.34,0.262 0,0 0.043,-0.18 0.051,-0.234 0.004,-0.055 0.136,-0.203 0.183,-0.242 0.047,-0.039 0.09,-0.266 0.082,-0.305 l -0.375,-0.613 0,-0.024 -0.023,0 c -0.301,-0.226 -0.672,-0.215 -0.672,-0.215 -0.238,0.063 -0.367,0.516 -0.367,0.516 l -0.027,0.004 c 0.027,0.039 0.046,0.078 0.05,0.129" />
        </g>
      </g>
      <g
         id="g3476">
        <g
           clip-path="url(#clipPath3480)"
           id="g3478">
          <path
             inkscape:connector-curvature="0"
             id="path3484"
             style="fill:#ffffff;fill-opacity:1;fill-rule:nonzero;stroke:none"
             d="m 334.133,559.851 c 0.004,0.16 0.144,0.34 0.246,0.57 0.051,0.105 0.141,0.383 0.219,0.656 0.097,0.328 0.187,0.645 0.187,0.645 0.047,0.394 0.117,0.687 0.192,0.902 0.152,0.457 0.328,0.563 0.363,0.598 0.058,0.051 0.14,0.308 0.14,0.308 l -0.003,0.036 1.027,0.121 c 0,0 0.07,0.015 0.156,0.05 l 0.059,-0.027 -0.328,-0.703 c 0.023,-0.25 -0.075,-0.559 -0.227,-0.871 -0.035,-0.074 -0.074,-0.145 -0.113,-0.219 -0.371,-0.68 -0.914,-1.328 -0.942,-1.406 -0.039,-0.129 -0.054,-0.227 0.047,-0.66 0.063,-0.262 -0.035,-0.461 -0.121,-0.578 l -0.023,-0.004 -0.02,0.195 c 0,0 -0.183,-0.016 -0.281,-0.164 -0.094,-0.149 -0.184,-0.469 -0.211,-0.594 -0.027,-0.113 -0.086,-0.215 -0.09,-0.222 -0.117,-0.004 -0.105,0.16 -0.105,0.16 l -0.043,0.695 c -0.035,0.027 -0.067,0.062 -0.086,0.098 -0.071,0.125 -0.047,0.289 -0.043,0.414" />
          <path
             inkscape:connector-curvature="0"
             id="path3486"
             style="fill:#91b9d1;fill-opacity:1;fill-rule:nonzero;stroke:none"
             d="m 334.379,562.394 0,0 c 0,0 0,0 0,0" />
          <path
             inkscape:connector-curvature="0"
             id="path3488"
             style="fill:#ffffff;fill-opacity:1;fill-rule:nonzero;stroke:none"
             d="m 333.621,561.484 c -0.16,0.14 0.07,0.101 0.039,0.171 -0.031,0.075 0.047,0.063 0.098,0.055 0.047,-0.012 0.16,-0.172 0.172,-0.191 0.015,-0.016 0.144,0.07 0.164,0.086 0.023,0.019 0.035,0.109 0.035,0.152 -0.004,0.047 0.07,0.348 0.086,0.394 0.019,0.055 0.012,0.036 0.164,0.243 0.004,0.004 0.035,0.031 0.191,0.175 0.223,0.204 0.395,0.059 0.395,0.059 l 0.008,-0.004 c -0.071,-0.215 -0.137,-0.504 -0.188,-0.902 0,0 -0.086,-0.317 -0.187,-0.645 l -0.008,0.004 -0.106,-0.172 -0.101,-0.14 c -0.098,-0.137 -0.16,0.054 -0.16,0.054 -0.024,0.032 0.039,0.231 0.074,0.286 0.019,0.027 0.035,0.117 0.051,0.203 l -0.024,0 c -0.07,-0.118 -0.222,-0.129 -0.312,-0.106 -0.09,0.016 -0.235,0.141 -0.235,0.141 l -0.156,0.137 z" />
          <path
             inkscape:connector-curvature="0"
             id="path3490"
             style="fill:#91b9d1;fill-opacity:1;fill-rule:nonzero;stroke:none"
             d="m 334.379,562.394 c 0,0 0,0 0,0" />
          <path
             inkscape:connector-curvature="0"
             id="path3492"
             style="fill:#ffffff;fill-opacity:1;fill-rule:nonzero;stroke:none"
             d="m 334.504,566.73 c 0,0 0.016,0.089 0.019,0.129 0,0.039 -0.109,0.128 -0.125,0.136 -0.015,0.008 0.012,0.063 -0.015,0.117 -0.031,0.055 -0.059,0.2 -0.059,0.2 -0.004,0.015 -0.004,0.031 -0.008,0.047 l 0.004,0 c 0,0 0.239,0.382 0.254,0.41 0,0 0.332,0.496 0,1.332 -0.051,0.129 -0.25,-0.114 -0.258,-0.125 l -0.004,0 c 0.047,0.066 0.067,0.172 -0.003,0.332 -0.114,0.261 -0.559,0.465 -0.719,0.527 -0.043,0.02 -0.086,0.02 -0.133,0.012 l -0.008,0.051 c 0,0 -0.164,0.293 0.11,0.617 0.269,0.324 0.359,0.367 0.472,0.383 0.114,0.011 0.317,0.039 0.317,0.039 0,0 0.375,0.273 0.734,0.039 -0.047,-0.055 -0.086,-0.106 -0.105,-0.141 -0.063,-0.105 -0.145,-0.351 -0.157,-0.41 -0.008,-0.059 -0.129,-0.387 -0.132,-0.5 0,-0.113 0.07,-0.637 0.093,-0.711 0.024,-0.07 0.121,-0.285 0.114,-0.324 -0.004,-0.035 -0.032,-0.188 -0.032,-0.188 0,0 0.117,0.071 0.141,0.071 0.019,-0.004 0.109,-0.004 0.125,0.05 0.016,0.055 0.035,0.235 0.019,0.344 -0.011,0.109 -0.046,0.176 -0.019,0.242 0.012,0.032 0.035,0.067 0.059,0.102 l 0.027,-0.004 c 0,0 0.129,-0.453 0.367,-0.516 0,0 0.367,-0.011 0.676,0.219 l 0.019,-0.004 -0.05,-0.48 -0.067,-0.391 c 0,0 0.059,-0.176 0.098,-0.187 0.035,-0.012 0.066,0.168 0.066,0.168 l 0.024,0.074 c 0,-0.008 0.039,0.066 0.058,0.039 0.016,-0.02 0.047,-0.012 0.09,0.019 l 0.004,-0.004 c 0,0 -0.121,-0.488 0.551,-0.964 l 0.008,-0.02 c -0.262,-0.113 -0.434,-0.336 -0.434,-0.336 l 0.004,-0.051 c -0.067,-0.004 -0.129,-0.015 -0.152,-0.019 -0.055,-0.012 -0.247,-0.09 -0.297,-0.086 -0.051,0 -0.184,-0.109 -0.332,-0.152 -0.145,-0.043 -0.067,-0.235 -0.266,-0.274 -0.066,-0.012 -0.109,-0.055 -0.137,-0.101" />
          <path
             inkscape:connector-curvature="0"
             id="path3494"
             style="fill:#ffffff;fill-opacity:1;fill-rule:nonzero;stroke:none"
             d="m 332.797,567.546 c 0.019,0.148 0.141,0.359 0.207,0.387 0.066,0.023 0.23,0.133 0.551,0.058 0,0 0.121,-0.109 0.144,-0.129 0.024,-0.015 0.129,-0.05 0.196,-0.105 0.066,-0.059 0.074,-0.113 0.078,-0.133 0,-0.023 0.082,-0.14 0.093,-0.156 0.012,-0.02 0.082,-0.223 0.086,-0.262 0,-0.035 0.036,-0.203 0.036,-0.226 0,-0.024 0.062,-0.235 0,-0.286 -0.075,-0.062 0.015,-0.558 -0.063,-0.597 -0.09,-0.133 -0.16,-0.344 -0.297,-0.387 -0.324,-0.094 -0.738,0.004 -0.738,0.004 l 0.066,0.691 c -0.011,0.055 -0.027,0.106 -0.051,0.149 -0.066,0.152 -0.089,0.32 -0.085,0.402 0.003,0.086 -0.047,0.219 -0.106,0.289 -0.055,0.074 -0.141,0.153 -0.117,0.301" />
          <path
             inkscape:connector-curvature="0"
             id="path3496"
             style="fill:#ffffff;fill-opacity:1;fill-rule:nonzero;stroke:none"
             d="m 332.312,562.769 -0.144,-0.047 -0.106,0.293 c 0.047,0.082 0.411,0.023 0.442,0.054 0.047,0.04 0.152,-0.011 0.168,0.04 0.012,0.054 0.078,0.039 0.144,0.089 0.067,0.051 0.082,0.102 0.125,0.11 0.043,0.008 0.114,0.07 0.125,0.101 0.012,0.032 0.11,0.047 0.164,0.067 0.055,0.015 0.247,0.133 0.301,0.175 0.059,0.04 0.11,0.036 0.164,0.02 0.055,-0.012 0.071,-0.109 0.071,-0.109 -0.036,-0.203 -0.18,-0.293 -0.18,-0.293 0,0 -0.004,-0.266 -0.012,-0.375 -0.008,-0.106 -0.187,-0.063 -0.187,-0.063 0,0 -0.063,-0.125 -0.114,-0.133 -0.058,-0.007 -0.113,-0.07 -0.156,-0.078 -0.043,-0.008 -0.125,-0.07 -0.191,-0.109 -0.067,-0.039 -0.379,0.09 -0.379,0.09 l -0.235,0.168 z" />
          <path
             inkscape:connector-curvature="0"
             id="path3498"
             style="fill:#ffffff;fill-opacity:1;fill-rule:nonzero;stroke:none"
             d="m 332.629,568.917 c -0.125,0 -0.18,0.074 -0.199,0.109 -0.02,0.036 0.16,0.11 0.16,0.11 0,0 0.195,0.113 0.39,0.129 0.032,0.004 0.063,0.008 0.09,0.008 0.141,0.015 0.231,0.023 0.36,-0.059 l 0.16,-0.094 0.031,-0.004 c -0.019,0.035 -0.039,0.067 -0.043,0.075 -0.008,0.023 -0.023,0.058 0.008,0.105 0.031,0.043 0.113,0.008 0.121,0 0.012,-0.008 0.059,-0.062 0.121,-0.113 0.063,-0.051 0.055,-0.004 0.11,-0.242 0.007,-0.051 0.011,-0.09 0.007,-0.122 -0.015,-0.125 -0.152,-0.121 -0.32,-0.207 -0.215,-0.105 -0.426,0.012 -0.426,0.012 0,0 -0.324,0.309 -0.347,0.336 -0.02,0.031 -0.055,0.027 -0.082,-0.004 -0.032,-0.035 -0.012,-0.035 -0.141,-0.039" />
          <path
             inkscape:connector-curvature="0"
             id="path3500"
             style="fill:#ffffff;fill-opacity:1;fill-rule:nonzero;stroke:none"
             d="m 333.07,569.292 c 0,0 0,0.313 0.086,0.387 0.063,0.055 0.18,0.144 0.301,0.168 0.043,0.008 0.09,0.008 0.133,-0.012 0.16,-0.062 0.605,-0.266 0.719,-0.527 0.07,-0.16 0.05,-0.266 0.003,-0.332 -0.027,-0.039 -0.062,-0.067 -0.093,-0.082 -0.086,-0.043 -0.27,-0.078 -0.27,-0.078 l -0.004,0.003 c 0.004,0.032 0.004,0.071 -0.007,0.122 -0.055,0.238 -0.047,0.191 -0.11,0.242 -0.066,0.051 -0.109,0.109 -0.121,0.117 -0.008,0.004 -0.09,0.039 -0.121,-0.004 -0.031,-0.047 -0.016,-0.082 -0.008,-0.105 0.004,-0.008 0.02,-0.04 0.043,-0.075 l -0.031,0.004 -0.16,0.098 c -0.129,0.078 -0.219,0.07 -0.36,0.055 l 0,0.019 z" />
        </g>
      </g>
      <g
         id="g3578" />
      <rect
         style="opacity:0.98999999;fill:none"
         id="rect3299"
         width="105.74767"
         height="38.774155"
         x="404.19107"
         y="284.51663"
         transform="matrix(0.8,0,0,-0.8,-4.0752857,806.65568)" />
    </g>
    <rect
       style="opacity:0.98999999;fill:none"
       id="rect5102"
       width="118.08489"
       height="52.873833"
       x="429.45303"
       y="359.12747" />
    <rect
       style="opacity:0.98999999;fill:none"
       id="rect5104"
       width="32.899273"
       height="1.1749741"
       x="551.06287"
       y="414.93875" />
    <rect
       style="opacity:0.98999999;fill:none"
       id="rect5114"
       width="182.12099"
       height="58.748703"
       x="428.86554"
       y="360.88992" />
    <path
       style="opacity:0.98999999;fill:none"
       d="m 491.4432,397.13208 c -1.8189,-0.72999 -3.20385,-4.17936 -2.71796,-6.7694 0.88946,-4.7412 7.25118,-6.07999 9.37502,-1.97293 1.43182,2.76884 1.10528,5.67746 -0.85776,7.64051 -1.75794,1.75793 -3.39124,2.06825 -5.7993,1.10182 z m 5.31349,-1.85063 c 1.4624,-1.69129 1.37834,-5.99599 -0.14687,-7.5212 -3.55133,-3.55133 -8.20211,0.89711 -6.4592,6.17817 1.09183,3.30829 4.3364,3.96791 6.60607,1.34303 z"
       id="path5116"
       inkscape:connector-curvature="0" />
  </g>
</svg>
